{
    "defaultSeverity": "error",
    "extends": [
        "tslint:recommended"
    ],
    "jsRules": {},
    "rules": {
        "quotemark": [true, "single"],
        "object-literal-sort-keys": false,
        "trailing-comma": [
            true,
            {
                "multiline": {
                    "objects": "always",
                    "arrays": "always",
                    "functions": "ignore",
                    "typeLiterals": "ignore"
                },
                "esSpecCompliant": true
            }
        ],
        "interface-name": [true, "never-prefix"]
    },
    "rulesDirectory": []
}
